[2021-02-06 07:01:11,242] [INFO] [fuzz_request_sender.__init__] -> Logger initialized
[2021-02-06 07:01:11,250] [WARNING] [request_base_functions.format_pycurl_query_param] -> Returning: {'type': 'asd', 'inno_discount': 'asd', 'action': 'asd', 'planned_time': '1', 'planned_distance': '1', 'plan': 'asd', 'time': '1', 'distance': '1'}
[2021-02-06 07:01:11,250] [INFO] [fuzz_request_sender.transmit] -> Request URL : b'GET' https://script.google.comacros/s/AKfycbzRMTtevIs0ldpdhHQJasl9nKDWqQ2NX3EsRQYX1KLrAdP0xmpAyXrjSA/exec?type=asd&inno_discount=asd&action=asd&planned_time=1&planned_distance=1&plan=asd&time=1&distance=1
[2021-02-06 07:01:11,250] [INFO] [request_base_functions.format_pycurl_url] -> URL to be used: https://script.google.comacros/s/AKfycbzRMTtevIs0ldpdhHQJasl9nKDWqQ2NX3EsRQYX1KLrAdP0xmpAyXrjSA/exec?type=asd&inno_discount=asd&action=asd&planned_time=1&planned_distance=1&plan=asd&time=1&distance=1
[2021-02-06 07:01:11,311] [WARNING] [fuzz_request_sender.transmit] -> Failed to send request because of (6, 'Could not resolve host: script.google.comacros')
[2021-02-06 07:01:11,315] [WARNING] [fuzz_request_sender.transmit] -> Failed to send request because of (6, 'Could not resolve host: script.google.comacros')
[2021-02-06 07:01:11,320] [WARNING] [fuzz_request_sender.transmit] -> Failed to send request because of (6, 'Could not resolve host: script.google.comacros')
[2021-02-06 07:01:11,320] [WARNING] [fuzz_request_sender.report_add_basic_msg] -> Failed to parse http response code
[2021-02-06 07:01:11,320] [WARNING] [base.post_test] -> Test -1 status: failed
[2021-02-06 07:01:11,320] [WARNING] [base.post_test] -> Reason: failed
[2021-02-06 07:01:11,320] [INFO] [fuzz_request_sender.save_report_to_disc] -> Report: {'status': 'failed', 'name': {}, 'sub_reports': [], 'test_number': -1, 'state': 'COMPLETED', 'request_url': 'https://script.google.comacros/s/AKfycbzRMTtevIs0ldpdhHQJasl9nKDWqQ2NX3EsRQYX1KLrAdP0xmpAyXrjSA/exec?type=asd&inno_discount=asd&action=asd&planned_time=1&planned_distance=1&plan=asd&time=1&distance=1', 'request_method': 'GET', 'request_headers': '{"User-Agent": "APIFuzzer 0.9.5", "Accept-Encoding": "gzip, deflate", "Accept": "*/*", "Connection": "keep-alive"}', 'request_body': {}, 'response': '', 'reason': 'failed'}
[2021-02-06 07:01:11,322] [WARNING] [request_base_functions.format_pycurl_query_param] -> Returning: {'type': 'Lm2', 'inno_discount': 'asd', 'action': 'asd', 'planned_time': '1', 'planned_distance': '1', 'plan': 'asd', 'time': '1', 'distance': '1'}
[2021-02-06 07:01:11,322] [INFO] [fuzz_request_sender.transmit] -> Request URL : b'GET' https://script.google.comacros/s/AKfycbzRMTtevIs0ldpdhHQJasl9nKDWqQ2NX3EsRQYX1KLrAdP0xmpAyXrjSA/exec?type=Lm2&inno_discount=asd&action=asd&planned_time=1&planned_distance=1&plan=asd&time=1&distance=1
[2021-02-06 07:01:11,323] [INFO] [request_base_functions.format_pycurl_url] -> URL to be used: https://script.google.comacros/s/AKfycbzRMTtevIs0ldpdhHQJasl9nKDWqQ2NX3EsRQYX1KLrAdP0xmpAyXrjSA/exec?type=Lm2&inno_discount=asd&action=asd&planned_time=1&planned_distance=1&plan=asd&time=1&distance=1
[2021-02-06 07:01:11,327] [WARNING] [fuzz_request_sender.transmit] -> Failed to send request because of (6, 'Could not resolve host: script.google.comacros')
[2021-02-06 07:01:11,331] [WARNING] [fuzz_request_sender.transmit] -> Failed to send request because of (6, 'Could not resolve host: script.google.comacros')
[2021-02-06 07:01:11,336] [WARNING] [fuzz_request_sender.transmit] -> Failed to send request because of (6, 'Could not resolve host: script.google.comacros')
[2021-02-06 07:01:11,336] [WARNING] [fuzz_request_sender.report_add_basic_msg] -> Failed to parse http response code
[2021-02-06 07:01:11,336] [WARNING] [base.post_test] -> Test 0 status: failed
[2021-02-06 07:01:11,336] [WARNING] [base.post_test] -> Reason: failed
[2021-02-06 07:01:11,336] [INFO] [fuzz_request_sender.save_report_to_disc] -> Report: {'status': 'failed', 'name': {}, 'sub_reports': [], 'test_number': 0, 'state': 'COMPLETED', 'request_url': 'https://script.google.comacros/s/AKfycbzRMTtevIs0ldpdhHQJasl9nKDWqQ2NX3EsRQYX1KLrAdP0xmpAyXrjSA/exec?type=Lm2&inno_discount=asd&action=asd&planned_time=1&planned_distance=1&plan=asd&time=1&distance=1', 'request_method': 'GET', 'request_headers': '{"User-Agent": "APIFuzzer 0.9.5", "Accept-Encoding": "gzip, deflate", "Accept": "*/*", "Connection": "keep-alive"}', 'request_body': {}, 'response': '', 'reason': 'failed'}
[2021-02-06 07:01:11,340] [WARNING] [request_base_functions.format_pycurl_query_param] -> Returning: {'type': '\x13kq\t', 'inno_discount': 'asd', 'action': 'asd', 'planned_time': '1', 'planned_distance': '1', 'plan': 'asd', 'time': '1', 'distance': '1'}
[2021-02-06 07:01:11,340] [INFO] [fuzz_request_sender.transmit] -> Request URL : b'GET' https://script.google.comacros/s/AKfycbzRMTtevIs0ldpdhHQJasl9nKDWqQ2NX3EsRQYX1KLrAdP0xmpAyXrjSA/exec?type=kq	&inno_discount=asd&action=asd&planned_time=1&planned_distance=1&plan=asd&time=1&distance=1
[2021-02-06 07:01:11,340] [INFO] [request_base_functions.format_pycurl_url] -> URL to be used: https://script.google.comacros/s/AKfycbzRMTtevIs0ldpdhHQJasl9nKDWqQ2NX3EsRQYX1KLrAdP0xmpAyXrjSA/exec?type=kq	&inno_discount=asd&action=asd&planned_time=1&planned_distance=1&plan=asd&time=1&distance=1
[2021-02-06 07:01:11,345] [WARNING] [fuzz_request_sender.transmit] -> Failed to send request because of (6, 'Could not resolve host: script.google.comacros')
[2021-02-06 07:01:11,349] [WARNING] [fuzz_request_sender.transmit] -> Failed to send request because of (6, 'Could not resolve host: script.google.comacros')
[2021-02-06 07:01:11,353] [WARNING] [fuzz_request_sender.transmit] -> Failed to send request because of (6, 'Could not resolve host: script.google.comacros')
[2021-02-06 07:01:11,354] [WARNING] [fuzz_request_sender.report_add_basic_msg] -> Failed to parse http response code
[2021-02-06 07:01:11,354] [WARNING] [base.post_test] -> Test 1 status: failed
[2021-02-06 07:01:11,354] [WARNING] [base.post_test] -> Reason: failed
[2021-02-06 07:01:11,354] [INFO] [fuzz_request_sender.save_report_to_disc] -> Report: {'status': 'failed', 'name': {}, 'sub_reports': [], 'test_number': 1, 'state': 'COMPLETED', 'request_url': 'https://script.google.comacros/s/AKfycbzRMTtevIs0ldpdhHQJasl9nKDWqQ2NX3EsRQYX1KLrAdP0xmpAyXrjSA/exec?type=\x13kq\t&inno_discount=asd&action=asd&planned_time=1&planned_distance=1&plan=asd&time=1&distance=1', 'request_method': 'GET', 'request_headers': '{"User-Agent": "APIFuzzer 0.9.5", "Accept-Encoding": "gzip, deflate", "Accept": "*/*", "Connection": "keep-alive"}', 'request_body': {}, 'response': '', 'reason': 'failed'}
[2021-02-06 07:01:11,357] [WARNING] [request_base_functions.format_pycurl_query_param] -> Returning: {'type': '\x0f0N[hR', 'inno_discount': 'asd', 'action': 'asd', 'planned_time': '1', 'planned_distance': '1', 'plan': 'asd', 'time': '1', 'distance': '1'}
[2021-02-06 07:01:11,357] [INFO] [fuzz_request_sender.transmit] -> Request URL : b'GET' https://script.google.comacros/s/AKfycbzRMTtevIs0ldpdhHQJasl9nKDWqQ2NX3EsRQYX1KLrAdP0xmpAyXrjSA/exec?type=0N[hR&inno_discount=asd&action=asd&planned_time=1&planned_distance=1&plan=asd&time=1&distance=1
[2021-02-06 07:01:11,357] [INFO] [request_base_functions.format_pycurl_url] -> URL to be used: https://script.google.comacros/s/AKfycbzRMTtevIs0ldpdhHQJasl9nKDWqQ2NX3EsRQYX1KLrAdP0xmpAyXrjSA/exec?type=0N[hR&inno_discount=asd&action=asd&planned_time=1&planned_distance=1&plan=asd&time=1&distance=1
[2021-02-06 07:01:11,362] [WARNING] [fuzz_request_sender.transmit] -> Failed to send request because of (6, 'Could not resolve host: script.google.comacros')
[2021-02-06 07:01:11,366] [WARNING] [fuzz_request_sender.transmit] -> Failed to send request because of (6, 'Could not resolve host: script.google.comacros')
[2021-02-06 07:01:11,370] [WARNING] [fuzz_request_sender.transmit] -> Failed to send request because of (6, 'Could not resolve host: script.google.comacros')
[2021-02-06 07:01:11,371] [WARNING] [fuzz_request_sender.report_add_basic_msg] -> Failed to parse http response code
[2021-02-06 07:01:11,371] [WARNING] [base.post_test] -> Test 2 status: failed
[2021-02-06 07:01:11,371] [WARNING] [base.post_test] -> Reason: failed
[2021-02-06 07:01:11,371] [INFO] [fuzz_request_sender.save_report_to_disc] -> Report: {'status': 'failed', 'name': {}, 'sub_reports': [], 'test_number': 2, 'state': 'COMPLETED', 'request_url': 'https://script.google.comacros/s/AKfycbzRMTtevIs0ldpdhHQJasl9nKDWqQ2NX3EsRQYX1KLrAdP0xmpAyXrjSA/exec?type=\x0f0N[hR&inno_discount=asd&action=asd&planned_time=1&planned_distance=1&plan=asd&time=1&distance=1', 'request_method': 'GET', 'request_headers': '{"User-Agent": "APIFuzzer 0.9.5", "Accept-Encoding": "gzip, deflate", "Accept": "*/*", "Connection": "keep-alive"}', 'request_body': {}, 'response': '', 'reason': 'failed'}
[2021-02-06 07:01:11,382] [WARNING] [request_base_functions.format_pycurl_query_param] -> Returning: {'type': '\tH', 'inno_discount': 'asd', 'action': 'asd', 'planned_time': '1', 'planned_distance': '1', 'plan': 'asd', 'time': '1', 'distance': '1'}
[2021-02-06 07:01:11,382] [INFO] [fuzz_request_sender.transmit] -> Request URL : b'GET' https://script.google.comacros/s/AKfycbzRMTtevIs0ldpdhHQJasl9nKDWqQ2NX3EsRQYX1KLrAdP0xmpAyXrjSA/exec?type=	H&inno_discount=asd&action=asd&planned_time=1&planned_distance=1&plan=asd&time=1&distance=1
[2021-02-06 07:01:11,382] [INFO] [request_base_functions.format_pycurl_url] -> URL to be used: https://script.google.comacros/s/AKfycbzRMTtevIs0ldpdhHQJasl9nKDWqQ2NX3EsRQYX1KLrAdP0xmpAyXrjSA/exec?type=	H&inno_discount=asd&action=asd&planned_time=1&planned_distance=1&plan=asd&time=1&distance=1
[2021-02-06 07:01:11,387] [WARNING] [fuzz_request_sender.transmit] -> Failed to send request because of (6, 'Could not resolve host: script.google.comacros')
[2021-02-06 07:01:11,391] [WARNING] [fuzz_request_sender.transmit] -> Failed to send request because of (6, 'Could not resolve host: script.google.comacros')
[2021-02-06 07:01:11,395] [WARNING] [fuzz_request_sender.transmit] -> Failed to send request because of (6, 'Could not resolve host: script.google.comacros')
[2021-02-06 07:01:11,396] [WARNING] [fuzz_request_sender.report_add_basic_msg] -> Failed to parse http response code
[2021-02-06 07:01:11,396] [WARNING] [base.post_test] -> Test 3 status: failed
[2021-02-06 07:01:11,396] [WARNING] [base.post_test] -> Reason: failed
[2021-02-06 07:01:11,396] [INFO] [fuzz_request_sender.save_report_to_disc] -> Report: {'status': 'failed', 'name': {}, 'sub_reports': [], 'test_number': 3, 'state': 'COMPLETED', 'request_url': 'https://script.google.comacros/s/AKfycbzRMTtevIs0ldpdhHQJasl9nKDWqQ2NX3EsRQYX1KLrAdP0xmpAyXrjSA/exec?type=\tH&inno_discount=asd&action=asd&planned_time=1&planned_distance=1&plan=asd&time=1&distance=1', 'request_method': 'GET', 'request_headers': '{"User-Agent": "APIFuzzer 0.9.5", "Accept-Encoding": "gzip, deflate", "Accept": "*/*", "Connection": "keep-alive"}', 'request_body': {}, 'response': '', 'reason': 'failed'}
[2021-02-06 07:01:11,399] [WARNING] [request_base_functions.format_pycurl_query_param] -> Returning: {'type': '\tj,Ge', 'inno_discount': 'asd', 'action': 'asd', 'planned_time': '1', 'planned_distance': '1', 'plan': 'asd', 'time': '1', 'distance': '1'}
[2021-02-06 07:01:11,399] [INFO] [fuzz_request_sender.transmit] -> Request URL : b'GET' https://script.google.comacros/s/AKfycbzRMTtevIs0ldpdhHQJasl9nKDWqQ2NX3EsRQYX1KLrAdP0xmpAyXrjSA/exec?type=	j,Ge&inno_discount=asd&action=asd&planned_time=1&planned_distance=1&plan=asd&time=1&distance=1
[2021-02-06 07:01:11,400] [INFO] [request_base_functions.format_pycurl_url] -> URL to be used: https://script.google.comacros/s/AKfycbzRMTtevIs0ldpdhHQJasl9nKDWqQ2NX3EsRQYX1KLrAdP0xmpAyXrjSA/exec?type=	j,Ge&inno_discount=asd&action=asd&planned_time=1&planned_distance=1&plan=asd&time=1&distance=1
[2021-02-06 07:01:11,404] [WARNING] [fuzz_request_sender.transmit] -> Failed to send request because of (6, 'Could not resolve host: script.google.comacros')
[2021-02-06 07:01:11,409] [WARNING] [fuzz_request_sender.transmit] -> Failed to send request because of (6, 'Could not resolve host: script.google.comacros')
[2021-02-06 07:01:11,413] [WARNING] [fuzz_request_sender.transmit] -> Failed to send request because of (6, 'Could not resolve host: script.google.comacros')
[2021-02-06 07:01:11,413] [WARNING] [fuzz_request_sender.report_add_basic_msg] -> Failed to parse http response code
[2021-02-06 07:01:11,414] [WARNING] [base.post_test] -> Test 4 status: failed
[2021-02-06 07:01:11,414] [WARNING] [base.post_test] -> Reason: failed
[2021-02-06 07:01:11,414] [INFO] [fuzz_request_sender.save_report_to_disc] -> Report: {'status': 'failed', 'name': {}, 'sub_reports': [], 'test_number': 4, 'state': 'COMPLETED', 'request_url': 'https://script.google.comacros/s/AKfycbzRMTtevIs0ldpdhHQJasl9nKDWqQ2NX3EsRQYX1KLrAdP0xmpAyXrjSA/exec?type=\tj,Ge&inno_discount=asd&action=asd&planned_time=1&planned_distance=1&plan=asd&time=1&distance=1', 'request_method': 'GET', 'request_headers': '{"User-Agent": "APIFuzzer 0.9.5", "Accept-Encoding": "gzip, deflate", "Accept": "*/*", "Connection": "keep-alive"}', 'request_body': {}, 'response': '', 'reason': 'failed'}
[2021-02-06 07:01:11,417] [WARNING] [request_base_functions.format_pycurl_query_param] -> Returning: {'type': ']\x04Z30\x1e}', 'inno_discount': 'asd', 'action': 'asd', 'planned_time': '1', 'planned_distance': '1', 'plan': 'asd', 'time': '1', 'distance': '1'}
[2021-02-06 07:01:11,417] [INFO] [fuzz_request_sender.transmit] -> Request URL : b'GET' https://script.google.comacros/s/AKfycbzRMTtevIs0ldpdhHQJasl9nKDWqQ2NX3EsRQYX1KLrAdP0xmpAyXrjSA/exec?type=]Z30}&inno_discount=asd&action=asd&planned_time=1&planned_distance=1&plan=asd&time=1&distance=1
[2021-02-06 07:01:11,418] [INFO] [request_base_functions.format_pycurl_url] -> URL to be used: https://script.google.comacros/s/AKfycbzRMTtevIs0ldpdhHQJasl9nKDWqQ2NX3EsRQYX1KLrAdP0xmpAyXrjSA/exec?type=]Z30}&inno_discount=asd&action=asd&planned_time=1&planned_distance=1&plan=asd&time=1&distance=1
[2021-02-06 07:01:11,422] [WARNING] [fuzz_request_sender.transmit] -> Failed to send request because of (6, 'Could not resolve host: script.google.comacros')
[2021-02-06 07:01:11,427] [WARNING] [fuzz_request_sender.transmit] -> Failed to send request because of (6, 'Could not resolve host: script.google.comacros')
[2021-02-06 07:01:11,431] [WARNING] [fuzz_request_sender.transmit] -> Failed to send request because of (6, 'Could not resolve host: script.google.comacros')
[2021-02-06 07:01:11,431] [WARNING] [fuzz_request_sender.report_add_basic_msg] -> Failed to parse http response code
[2021-02-06 07:01:11,431] [WARNING] [base.post_test] -> Test 5 status: failed
[2021-02-06 07:01:11,432] [WARNING] [base.post_test] -> Reason: failed
[2021-02-06 07:01:11,432] [INFO] [fuzz_request_sender.save_report_to_disc] -> Report: {'status': 'failed', 'name': {}, 'sub_reports': [], 'test_number': 5, 'state': 'COMPLETED', 'request_url': 'https://script.google.comacros/s/AKfycbzRMTtevIs0ldpdhHQJasl9nKDWqQ2NX3EsRQYX1KLrAdP0xmpAyXrjSA/exec?type=]\x04Z30\x1e}&inno_discount=asd&action=asd&planned_time=1&planned_distance=1&plan=asd&time=1&distance=1', 'request_method': 'GET', 'request_headers': '{"User-Agent": "APIFuzzer 0.9.5", "Accept-Encoding": "gzip, deflate", "Accept": "*/*", "Connection": "keep-alive"}', 'request_body': {}, 'response': '', 'reason': 'failed'}
[2021-02-06 07:01:11,435] [WARNING] [request_base_functions.format_pycurl_query_param] -> Returning: {'type': "\x03\x07U'", 'inno_discount': 'asd', 'action': 'asd', 'planned_time': '1', 'planned_distance': '1', 'plan': 'asd', 'time': '1', 'distance': '1'}
[2021-02-06 07:01:11,436] [INFO] [fuzz_request_sender.transmit] -> Request URL : b'GET' https://script.google.comacros/s/AKfycbzRMTtevIs0ldpdhHQJasl9nKDWqQ2NX3EsRQYX1KLrAdP0xmpAyXrjSA/exec?type=U'&inno_discount=asd&action=asd&planned_time=1&planned_distance=1&plan=asd&time=1&distance=1
[2021-02-06 07:01:11,436] [INFO] [request_base_functions.format_pycurl_url] -> URL to be used: https://script.google.comacros/s/AKfycbzRMTtevIs0ldpdhHQJasl9nKDWqQ2NX3EsRQYX1KLrAdP0xmpAyXrjSA/exec?type=U'&inno_discount=asd&action=asd&planned_time=1&planned_distance=1&plan=asd&time=1&distance=1
[2021-02-06 07:01:11,440] [WARNING] [fuzz_request_sender.transmit] -> Failed to send request because of (6, 'Could not resolve host: script.google.comacros')
[2021-02-06 07:01:11,445] [WARNING] [fuzz_request_sender.transmit] -> Failed to send request because of (6, 'Could not resolve host: script.google.comacros')
[2021-02-06 07:01:11,449] [WARNING] [fuzz_request_sender.transmit] -> Failed to send request because of (6, 'Could not resolve host: script.google.comacros')
[2021-02-06 07:01:11,450] [WARNING] [fuzz_request_sender.report_add_basic_msg] -> Failed to parse http response code
[2021-02-06 07:01:11,450] [WARNING] [base.post_test] -> Test 6 status: failed
[2021-02-06 07:01:11,450] [WARNING] [base.post_test] -> Reason: failed
[2021-02-06 07:01:11,450] [INFO] [fuzz_request_sender.save_report_to_disc] -> Report: {'status': 'failed', 'name': {}, 'sub_reports': [], 'test_number': 6, 'state': 'COMPLETED', 'request_url': "https://script.google.comacros/s/AKfycbzRMTtevIs0ldpdhHQJasl9nKDWqQ2NX3EsRQYX1KLrAdP0xmpAyXrjSA/exec?type=\x03\x07U'&inno_discount=asd&action=asd&planned_time=1&planned_distance=1&plan=asd&time=1&distance=1", 'request_method': 'GET', 'request_headers': '{"User-Agent": "APIFuzzer 0.9.5", "Accept-Encoding": "gzip, deflate", "Accept": "*/*", "Connection": "keep-alive"}', 'request_body': {}, 'response': '', 'reason': 'failed'}
[2021-02-06 07:01:11,453] [WARNING] [request_base_functions.format_pycurl_query_param] -> Returning: {'type': '#__\x08%\x1c', 'inno_discount': 'asd', 'action': 'asd', 'planned_time': '1', 'planned_distance': '1', 'plan': 'asd', 'time': '1', 'distance': '1'}
[2021-02-06 07:01:11,453] [INFO] [fuzz_request_sender.transmit] -> Request URL : b'GET' https://script.google.comacros/s/AKfycbzRMTtevIs0ldpdhHQJasl9nKDWqQ2NX3EsRQYX1KLrAdP0xmpAyXrjSA/exec?type=#__%&inno_discount=asd&action=asd&planned_time=1&planned_distance=1&plan=asd&time=1&distance=1
[2021-02-06 07:01:11,453] [INFO] [request_base_functions.format_pycurl_url] -> URL to be used: https://script.google.comacros/s/AKfycbzRMTtevIs0ldpdhHQJasl9nKDWqQ2NX3EsRQYX1KLrAdP0xmpAyXrjSA/exec?type=#__%&inno_discount=asd&action=asd&planned_time=1&planned_distance=1&plan=asd&time=1&distance=1
[2021-02-06 07:01:11,458] [WARNING] [fuzz_request_sender.transmit] -> Failed to send request because of (6, 'Could not resolve host: script.google.comacros')
[2021-02-06 07:01:11,462] [WARNING] [fuzz_request_sender.transmit] -> Failed to send request because of (6, 'Could not resolve host: script.google.comacros')
[2021-02-06 07:01:11,467] [WARNING] [fuzz_request_sender.transmit] -> Failed to send request because of (6, 'Could not resolve host: script.google.comacros')
[2021-02-06 07:01:11,467] [WARNING] [fuzz_request_sender.report_add_basic_msg] -> Failed to parse http response code
[2021-02-06 07:01:11,467] [WARNING] [base.post_test] -> Test 7 status: failed
[2021-02-06 07:01:11,467] [WARNING] [base.post_test] -> Reason: failed
[2021-02-06 07:01:11,467] [INFO] [fuzz_request_sender.save_report_to_disc] -> Report: {'status': 'failed', 'name': {}, 'sub_reports': [], 'test_number': 7, 'state': 'COMPLETED', 'request_url': 'https://script.google.comacros/s/AKfycbzRMTtevIs0ldpdhHQJasl9nKDWqQ2NX3EsRQYX1KLrAdP0xmpAyXrjSA/exec?type=#__\x08%\x1c&inno_discount=asd&action=asd&planned_time=1&planned_distance=1&plan=asd&time=1&distance=1', 'request_method': 'GET', 'request_headers': '{"User-Agent": "APIFuzzer 0.9.5", "Accept-Encoding": "gzip, deflate", "Accept": "*/*", "Connection": "keep-alive"}', 'request_body': {}, 'response': '', 'reason': 'failed'}
[2021-02-06 07:01:11,471] [WARNING] [request_base_functions.format_pycurl_query_param] -> Returning: {'type': '2\x02', 'inno_discount': 'asd', 'action': 'asd', 'planned_time': '1', 'planned_distance': '1', 'plan': 'asd', 'time': '1', 'distance': '1'}
[2021-02-06 07:01:11,471] [INFO] [fuzz_request_sender.transmit] -> Request URL : b'GET' https://script.google.comacros/s/AKfycbzRMTtevIs0ldpdhHQJasl9nKDWqQ2NX3EsRQYX1KLrAdP0xmpAyXrjSA/exec?type=2&inno_discount=asd&action=asd&planned_time=1&planned_distance=1&plan=asd&time=1&distance=1
[2021-02-06 07:01:11,471] [INFO] [request_base_functions.format_pycurl_url] -> URL to be used: https://script.google.comacros/s/AKfycbzRMTtevIs0ldpdhHQJasl9nKDWqQ2NX3EsRQYX1KLrAdP0xmpAyXrjSA/exec?type=2&inno_discount=asd&action=asd&planned_time=1&planned_distance=1&plan=asd&time=1&distance=1
[2021-02-06 07:01:11,476] [WARNING] [fuzz_request_sender.transmit] -> Failed to send request because of (6, 'Could not resolve host: script.google.comacros')
[2021-02-06 07:01:11,480] [WARNING] [fuzz_request_sender.transmit] -> Failed to send request because of (6, 'Could not resolve host: script.google.comacros')
[2021-02-06 07:01:11,485] [WARNING] [fuzz_request_sender.transmit] -> Failed to send request because of (6, 'Could not resolve host: script.google.comacros')
[2021-02-06 07:01:11,485] [WARNING] [fuzz_request_sender.report_add_basic_msg] -> Failed to parse http response code
[2021-02-06 07:01:11,485] [WARNING] [base.post_test] -> Test 8 status: failed
[2021-02-06 07:01:11,485] [WARNING] [base.post_test] -> Reason: failed
[2021-02-06 07:01:11,485] [INFO] [fuzz_request_sender.save_report_to_disc] -> Report: {'status': 'failed', 'name': {}, 'sub_reports': [], 'test_number': 8, 'state': 'COMPLETED', 'request_url': 'https://script.google.comacros/s/AKfycbzRMTtevIs0ldpdhHQJasl9nKDWqQ2NX3EsRQYX1KLrAdP0xmpAyXrjSA/exec?type=2\x02&inno_discount=asd&action=asd&planned_time=1&planned_distance=1&plan=asd&time=1&distance=1', 'request_method': 'GET', 'request_headers': '{"User-Agent": "APIFuzzer 0.9.5", "Accept-Encoding": "gzip, deflate", "Accept": "*/*", "Connection": "keep-alive"}', 'request_body': {}, 'response': '', 'reason': 'failed'}
[2021-02-06 07:01:11,489] [WARNING] [request_base_functions.format_pycurl_query_param] -> Returning: {'type': '<3-H&', 'inno_discount': 'asd', 'action': 'asd', 'planned_time': '1', 'planned_distance': '1', 'plan': 'asd', 'time': '1', 'distance': '1'}
[2021-02-06 07:01:11,489] [INFO] [fuzz_request_sender.transmit] -> Request URL : b'GET' https://script.google.comacros/s/AKfycbzRMTtevIs0ldpdhHQJasl9nKDWqQ2NX3EsRQYX1KLrAdP0xmpAyXrjSA/exec?type=<3-H&&inno_discount=asd&action=asd&planned_time=1&planned_distance=1&plan=asd&time=1&distance=1
[2021-02-06 07:01:11,489] [INFO] [request_base_functions.format_pycurl_url] -> URL to be used: https://script.google.comacros/s/AKfycbzRMTtevIs0ldpdhHQJasl9nKDWqQ2NX3EsRQYX1KLrAdP0xmpAyXrjSA/exec?type=<3-H&&inno_discount=asd&action=asd&planned_time=1&planned_distance=1&plan=asd&time=1&distance=1
[2021-02-06 07:01:11,493] [WARNING] [fuzz_request_sender.transmit] -> Failed to send request because of (6, 'Could not resolve host: script.google.comacros')
[2021-02-06 07:01:11,498] [WARNING] [fuzz_request_sender.transmit] -> Failed to send request because of (6, 'Could not resolve host: script.google.comacros')
[2021-02-06 07:01:11,502] [WARNING] [fuzz_request_sender.transmit] -> Failed to send request because of (6, 'Could not resolve host: script.google.comacros')
[2021-02-06 07:01:11,502] [WARNING] [fuzz_request_sender.report_add_basic_msg] -> Failed to parse http response code
[2021-02-06 07:01:11,503] [WARNING] [base.post_test] -> Test 9 status: failed
[2021-02-06 07:01:11,503] [WARNING] [base.post_test] -> Reason: failed
[2021-02-06 07:01:11,503] [INFO] [fuzz_request_sender.save_report_to_disc] -> Report: {'status': 'failed', 'name': {}, 'sub_reports': [], 'test_number': 9, 'state': 'COMPLETED', 'request_url': 'https://script.google.comacros/s/AKfycbzRMTtevIs0ldpdhHQJasl9nKDWqQ2NX3EsRQYX1KLrAdP0xmpAyXrjSA/exec?type=<3-H&&inno_discount=asd&action=asd&planned_time=1&planned_distance=1&plan=asd&time=1&distance=1', 'request_method': 'GET', 'request_headers': '{"User-Agent": "APIFuzzer 0.9.5", "Accept-Encoding": "gzip, deflate", "Accept": "*/*", "Connection": "keep-alive"}', 'request_body': {}, 'response': '', 'reason': 'failed'}
[2021-02-06 07:01:11,506] [WARNING] [request_base_functions.format_pycurl_query_param] -> Returning: {'type': '\x189~+', 'inno_discount': 'asd', 'action': 'asd', 'planned_time': '1', 'planned_distance': '1', 'plan': 'asd', 'time': '1', 'distance': '1'}
[2021-02-06 07:01:11,507] [INFO] [fuzz_request_sender.transmit] -> Request URL : b'GET' https://script.google.comacros/s/AKfycbzRMTtevIs0ldpdhHQJasl9nKDWqQ2NX3EsRQYX1KLrAdP0xmpAyXrjSA/exec?type=9~+&inno_discount=asd&action=asd&planned_time=1&planned_distance=1&plan=asd&time=1&distance=1
[2021-02-06 07:01:11,507] [INFO] [request_base_functions.format_pycurl_url] -> URL to be used: https://script.google.comacros/s/AKfycbzRMTtevIs0ldpdhHQJasl9nKDWqQ2NX3EsRQYX1KLrAdP0xmpAyXrjSA/exec?type=9~+&inno_discount=asd&action=asd&planned_time=1&planned_distance=1&plan=asd&time=1&distance=1
[2021-02-06 07:01:11,512] [WARNING] [fuzz_request_sender.transmit] -> Failed to send request because of (6, 'Could not resolve host: script.google.comacros')
[2021-02-06 07:01:11,516] [WARNING] [fuzz_request_sender.transmit] -> Failed to send request because of (6, 'Could not resolve host: script.google.comacros')
[2021-02-06 07:01:11,520] [WARNING] [fuzz_request_sender.transmit] -> Failed to send request because of (6, 'Could not resolve host: script.google.comacros')
[2021-02-06 07:01:11,521] [WARNING] [fuzz_request_sender.report_add_basic_msg] -> Failed to parse http response code
[2021-02-06 07:01:11,521] [WARNING] [base.post_test] -> Test 10 status: failed
[2021-02-06 07:01:11,521] [WARNING] [base.post_test] -> Reason: failed
[2021-02-06 07:01:11,521] [INFO] [fuzz_request_sender.save_report_to_disc] -> Report: {'status': 'failed', 'name': {}, 'sub_reports': [], 'test_number': 10, 'state': 'COMPLETED', 'request_url': 'https://script.google.comacros/s/AKfycbzRMTtevIs0ldpdhHQJasl9nKDWqQ2NX3EsRQYX1KLrAdP0xmpAyXrjSA/exec?type=\x189~+&inno_discount=asd&action=asd&planned_time=1&planned_distance=1&plan=asd&time=1&distance=1', 'request_method': 'GET', 'request_headers': '{"User-Agent": "APIFuzzer 0.9.5", "Accept-Encoding": "gzip, deflate", "Accept": "*/*", "Connection": "keep-alive"}', 'request_body': {}, 'response': '', 'reason': 'failed'}
[2021-02-06 07:01:11,524] [WARNING] [request_base_functions.format_pycurl_query_param] -> Returning: {'type': 'Zo-@', 'inno_discount': 'asd', 'action': 'asd', 'planned_time': '1', 'planned_distance': '1', 'plan': 'asd', 'time': '1', 'distance': '1'}
[2021-02-06 07:01:11,524] [INFO] [fuzz_request_sender.transmit] -> Request URL : b'GET' https://script.google.comacros/s/AKfycbzRMTtevIs0ldpdhHQJasl9nKDWqQ2NX3EsRQYX1KLrAdP0xmpAyXrjSA/exec?type=Zo-@&inno_discount=asd&action=asd&planned_time=1&planned_distance=1&plan=asd&time=1&distance=1
[2021-02-06 07:01:11,524] [INFO] [request_base_functions.format_pycurl_url] -> URL to be used: https://script.google.comacros/s/AKfycbzRMTtevIs0ldpdhHQJasl9nKDWqQ2NX3EsRQYX1KLrAdP0xmpAyXrjSA/exec?type=Zo-@&inno_discount=asd&action=asd&planned_time=1&planned_distance=1&plan=asd&time=1&distance=1
[2021-02-06 07:01:11,529] [WARNING] [fuzz_request_sender.transmit] -> Failed to send request because of (6, 'Could not resolve host: script.google.comacros')
[2021-02-06 07:01:11,533] [WARNING] [fuzz_request_sender.transmit] -> Failed to send request because of (6, 'Could not resolve host: script.google.comacros')
[2021-02-06 07:01:11,538] [WARNING] [fuzz_request_sender.transmit] -> Failed to send request because of (6, 'Could not resolve host: script.google.comacros')
[2021-02-06 07:01:11,538] [WARNING] [fuzz_request_sender.report_add_basic_msg] -> Failed to parse http response code
[2021-02-06 07:01:11,538] [WARNING] [base.post_test] -> Test 11 status: failed
[2021-02-06 07:01:11,538] [WARNING] [base.post_test] -> Reason: failed
[2021-02-06 07:01:11,539] [INFO] [fuzz_request_sender.save_report_to_disc] -> Report: {'status': 'failed', 'name': {}, 'sub_reports': [], 'test_number': 11, 'state': 'COMPLETED', 'request_url': 'https://script.google.comacros/s/AKfycbzRMTtevIs0ldpdhHQJasl9nKDWqQ2NX3EsRQYX1KLrAdP0xmpAyXrjSA/exec?type=Zo-@&inno_discount=asd&action=asd&planned_time=1&planned_distance=1&plan=asd&time=1&distance=1', 'request_method': 'GET', 'request_headers': '{"User-Agent": "APIFuzzer 0.9.5", "Accept-Encoding": "gzip, deflate", "Accept": "*/*", "Connection": "keep-alive"}', 'request_body': {}, 'response': '', 'reason': 'failed'}
[2021-02-06 07:01:11,542] [WARNING] [request_base_functions.format_pycurl_query_param] -> Returning: {'type': '^', 'inno_discount': 'asd', 'action': 'asd', 'planned_time': '1', 'planned_distance': '1', 'plan': 'asd', 'time': '1', 'distance': '1'}
[2021-02-06 07:01:11,542] [INFO] [fuzz_request_sender.transmit] -> Request URL : b'GET' https://script.google.comacros/s/AKfycbzRMTtevIs0ldpdhHQJasl9nKDWqQ2NX3EsRQYX1KLrAdP0xmpAyXrjSA/exec?type=^&inno_discount=asd&action=asd&planned_time=1&planned_distance=1&plan=asd&time=1&distance=1
[2021-02-06 07:01:11,542] [INFO] [request_base_functions.format_pycurl_url] -> URL to be used: https://script.google.comacros/s/AKfycbzRMTtevIs0ldpdhHQJasl9nKDWqQ2NX3EsRQYX1KLrAdP0xmpAyXrjSA/exec?type=^&inno_discount=asd&action=asd&planned_time=1&planned_distance=1&plan=asd&time=1&distance=1
[2021-02-06 07:01:11,546] [WARNING] [fuzz_request_sender.transmit] -> Failed to send request because of (6, 'Could not resolve host: script.google.comacros')
[2021-02-06 07:01:11,551] [WARNING] [fuzz_request_sender.transmit] -> Failed to send request because of (6, 'Could not resolve host: script.google.comacros')
[2021-02-06 07:01:11,555] [WARNING] [fuzz_request_sender.transmit] -> Failed to send request because of (6, 'Could not resolve host: script.google.comacros')
[2021-02-06 07:01:11,555] [WARNING] [fuzz_request_sender.report_add_basic_msg] -> Failed to parse http response code
[2021-02-06 07:01:11,556] [WARNING] [base.post_test] -> Test 12 status: failed
[2021-02-06 07:01:11,556] [WARNING] [base.post_test] -> Reason: failed
[2021-02-06 07:01:11,556] [INFO] [fuzz_request_sender.save_report_to_disc] -> Report: {'status': 'failed', 'name': {}, 'sub_reports': [], 'test_number': 12, 'state': 'COMPLETED', 'request_url': 'https://script.google.comacros/s/AKfycbzRMTtevIs0ldpdhHQJasl9nKDWqQ2NX3EsRQYX1KLrAdP0xmpAyXrjSA/exec?type=^&inno_discount=asd&action=asd&planned_time=1&planned_distance=1&plan=asd&time=1&distance=1', 'request_method': 'GET', 'request_headers': '{"User-Agent": "APIFuzzer 0.9.5", "Accept-Encoding": "gzip, deflate", "Accept": "*/*", "Connection": "keep-alive"}', 'request_body': {}, 'response': '', 'reason': 'failed'}
[2021-02-06 07:01:11,559] [WARNING] [request_base_functions.format_pycurl_query_param] -> Returning: {'type': 'Co0', 'inno_discount': 'asd', 'action': 'asd', 'planned_time': '1', 'planned_distance': '1', 'plan': 'asd', 'time': '1', 'distance': '1'}
[2021-02-06 07:01:11,559] [INFO] [fuzz_request_sender.transmit] -> Request URL : b'GET' https://script.google.comacros/s/AKfycbzRMTtevIs0ldpdhHQJasl9nKDWqQ2NX3EsRQYX1KLrAdP0xmpAyXrjSA/exec?type=Co0&inno_discount=asd&action=asd&planned_time=1&planned_distance=1&plan=asd&time=1&distance=1
[2021-02-06 07:01:11,560] [INFO] [request_base_functions.format_pycurl_url] -> URL to be used: https://script.google.comacros/s/AKfycbzRMTtevIs0ldpdhHQJasl9nKDWqQ2NX3EsRQYX1KLrAdP0xmpAyXrjSA/exec?type=Co0&inno_discount=asd&action=asd&planned_time=1&planned_distance=1&plan=asd&time=1&distance=1
[2021-02-06 07:01:11,564] [WARNING] [fuzz_request_sender.transmit] -> Failed to send request because of (6, 'Could not resolve host: script.google.comacros')
[2021-02-06 07:01:11,568] [WARNING] [fuzz_request_sender.transmit] -> Failed to send request because of (6, 'Could not resolve host: script.google.comacros')
[2021-02-06 07:01:11,573] [WARNING] [fuzz_request_sender.transmit] -> Failed to send request because of (6, 'Could not resolve host: script.google.comacros')
[2021-02-06 07:01:11,573] [WARNING] [fuzz_request_sender.report_add_basic_msg] -> Failed to parse http response code
[2021-02-06 07:01:11,573] [WARNING] [base.post_test] -> Test 13 status: failed
[2021-02-06 07:01:11,573] [WARNING] [base.post_test] -> Reason: failed
[2021-02-06 07:01:11,574] [INFO] [fuzz_request_sender.save_report_to_disc] -> Report: {'status': 'failed', 'name': {}, 'sub_reports': [], 'test_number': 13, 'state': 'COMPLETED', 'request_url': 'https://script.google.comacros/s/AKfycbzRMTtevIs0ldpdhHQJasl9nKDWqQ2NX3EsRQYX1KLrAdP0xmpAyXrjSA/exec?type=Co0&inno_discount=asd&action=asd&planned_time=1&planned_distance=1&plan=asd&time=1&distance=1', 'request_method': 'GET', 'request_headers': '{"User-Agent": "APIFuzzer 0.9.5", "Accept-Encoding": "gzip, deflate", "Accept": "*/*", "Connection": "keep-alive"}', 'request_body': {}, 'response': '', 'reason': 'failed'}
[2021-02-06 07:01:11,577] [WARNING] [request_base_functions.format_pycurl_query_param] -> Returning: {'type': '>u[C', 'inno_discount': 'asd', 'action': 'asd', 'planned_time': '1', 'planned_distance': '1', 'plan': 'asd', 'time': '1', 'distance': '1'}
[2021-02-06 07:01:11,577] [INFO] [fuzz_request_sender.transmit] -> Request URL : b'GET' https://script.google.comacros/s/AKfycbzRMTtevIs0ldpdhHQJasl9nKDWqQ2NX3EsRQYX1KLrAdP0xmpAyXrjSA/exec?type=>u[C&inno_discount=asd&action=asd&planned_time=1&planned_distance=1&plan=asd&time=1&distance=1
[2021-02-06 07:01:11,578] [INFO] [request_base_functions.format_pycurl_url] -> URL to be used: https://script.google.comacros/s/AKfycbzRMTtevIs0ldpdhHQJasl9nKDWqQ2NX3EsRQYX1KLrAdP0xmpAyXrjSA/exec?type=>u[C&inno_discount=asd&action=asd&planned_time=1&planned_distance=1&plan=asd&time=1&distance=1
[2021-02-06 07:01:11,582] [WARNING] [fuzz_request_sender.transmit] -> Failed to send request because of (6, 'Could not resolve host: script.google.comacros')
[2021-02-06 07:01:11,586] [WARNING] [fuzz_request_sender.transmit] -> Failed to send request because of (6, 'Could not resolve host: script.google.comacros')
[2021-02-06 07:01:11,591] [WARNING] [fuzz_request_sender.transmit] -> Failed to send request because of (6, 'Could not resolve host: script.google.comacros')
[2021-02-06 07:01:11,591] [WARNING] [fuzz_request_sender.report_add_basic_msg] -> Failed to parse http response code
[2021-02-06 07:01:11,591] [WARNING] [base.post_test] -> Test 14 status: failed
[2021-02-06 07:01:11,591] [WARNING] [base.post_test] -> Reason: failed
[2021-02-06 07:01:11,591] [INFO] [fuzz_request_sender.save_report_to_disc] -> Report: {'status': 'failed', 'name': {}, 'sub_reports': [], 'test_number': 14, 'state': 'COMPLETED', 'request_url': 'https://script.google.comacros/s/AKfycbzRMTtevIs0ldpdhHQJasl9nKDWqQ2NX3EsRQYX1KLrAdP0xmpAyXrjSA/exec?type=>u[C&inno_discount=asd&action=asd&planned_time=1&planned_distance=1&plan=asd&time=1&distance=1', 'request_method': 'GET', 'request_headers': '{"User-Agent": "APIFuzzer 0.9.5", "Accept-Encoding": "gzip, deflate", "Accept": "*/*", "Connection": "keep-alive"}', 'request_body': {}, 'response': '', 'reason': 'failed'}
[2021-02-06 07:01:11,595] [WARNING] [request_base_functions.format_pycurl_query_param] -> Returning: {'type': 's2t\x1b8n(', 'inno_discount': 'asd', 'action': 'asd', 'planned_time': '1', 'planned_distance': '1', 'plan': 'asd', 'time': '1', 'distance': '1'}
[2021-02-06 07:01:11,595] [INFO] [fuzz_request_sender.transmit] -> Request URL : b'GET' https://script.google.comacros/s/AKfycbzRMTtevIs0ldpdhHQJasl9nKDWqQ2NX3EsRQYX1KLrAdP0xmpAyXrjSA/exec?type=s2t8n(&inno_discount=asd&action=asd&planned_time=1&planned_distance=1&plan=asd&time=1&distance=1
[2021-02-06 07:01:11,596] [INFO] [request_base_functions.format_pycurl_url] -> URL to be used: https://script.google.comacros/s/AKfycbzRMTtevIs0ldpdhHQJasl9nKDWqQ2NX3EsRQYX1KLrAdP0xmpAyXrjSA/exec?type=s2t8n(&inno_discount=asd&action=asd&planned_time=1&planned_distance=1&plan=asd&time=1&distance=1
[2021-02-06 07:01:11,600] [WARNING] [fuzz_request_sender.transmit] -> Failed to send request because of (6, 'Could not resolve host: script.google.comacros')
[2021-02-06 07:01:11,605] [WARNING] [fuzz_request_sender.transmit] -> Failed to send request because of (6, 'Could not resolve host: script.google.comacros')
[2021-02-06 07:01:11,609] [WARNING] [fuzz_request_sender.transmit] -> Failed to send request because of (6, 'Could not resolve host: script.google.comacros')
[2021-02-06 07:01:11,609] [WARNING] [fuzz_request_sender.report_add_basic_msg] -> Failed to parse http response code
[2021-02-06 07:01:11,609] [WARNING] [base.post_test] -> Test 15 status: failed
[2021-02-06 07:01:11,609] [WARNING] [base.post_test] -> Reason: failed
[2021-02-06 07:01:11,610] [INFO] [fuzz_request_sender.save_report_to_disc] -> Report: {'status': 'failed', 'name': {}, 'sub_reports': [], 'test_number': 15, 'state': 'COMPLETED', 'request_url': 'https://script.google.comacros/s/AKfycbzRMTtevIs0ldpdhHQJasl9nKDWqQ2NX3EsRQYX1KLrAdP0xmpAyXrjSA/exec?type=s2t\x1b8n(&inno_discount=asd&action=asd&planned_time=1&planned_distance=1&plan=asd&time=1&distance=1', 'request_method': 'GET', 'request_headers': '{"User-Agent": "APIFuzzer 0.9.5", "Accept-Encoding": "gzip, deflate", "Accept": "*/*", "Connection": "keep-alive"}', 'request_body': {}, 'response': '', 'reason': 'failed'}
[2021-02-06 07:01:11,613] [WARNING] [request_base_functions.format_pycurl_query_param] -> Returning: {'type': 'sIQ\t', 'inno_discount': 'asd', 'action': 'asd', 'planned_time': '1', 'planned_distance': '1', 'plan': 'asd', 'time': '1', 'distance': '1'}
[2021-02-06 07:01:11,613] [INFO] [fuzz_request_sender.transmit] -> Request URL : b'GET' https://script.google.comacros/s/AKfycbzRMTtevIs0ldpdhHQJasl9nKDWqQ2NX3EsRQYX1KLrAdP0xmpAyXrjSA/exec?type=sIQ	&inno_discount=asd&action=asd&planned_time=1&planned_distance=1&plan=asd&time=1&distance=1
[2021-02-06 07:01:11,613] [INFO] [request_base_functions.format_pycurl_url] -> URL to be used: https://script.google.comacros/s/AKfycbzRMTtevIs0ldpdhHQJasl9nKDWqQ2NX3EsRQYX1KLrAdP0xmpAyXrjSA/exec?type=sIQ	&inno_discount=asd&action=asd&planned_time=1&planned_distance=1&plan=asd&time=1&distance=1
[2021-02-06 07:01:11,618] [WARNING] [fuzz_request_sender.transmit] -> Failed to send request because of (6, 'Could not resolve host: script.google.comacros')
[2021-02-06 07:01:11,622] [WARNING] [fuzz_request_sender.transmit] -> Failed to send request because of (6, 'Could not resolve host: script.google.comacros')
[2021-02-06 07:01:11,626] [WARNING] [fuzz_request_sender.transmit] -> Failed to send request because of (6, 'Could not resolve host: script.google.comacros')
[2021-02-06 07:01:11,627] [WARNING] [fuzz_request_sender.report_add_basic_msg] -> Failed to parse http response code
[2021-02-06 07:01:11,627] [WARNING] [base.post_test] -> Test 16 status: failed
[2021-02-06 07:01:11,627] [WARNING] [base.post_test] -> Reason: failed
[2021-02-06 07:01:11,627] [INFO] [fuzz_request_sender.save_report_to_disc] -> Report: {'status': 'failed', 'name': {}, 'sub_reports': [], 'test_number': 16, 'state': 'COMPLETED', 'request_url': 'https://script.google.comacros/s/AKfycbzRMTtevIs0ldpdhHQJasl9nKDWqQ2NX3EsRQYX1KLrAdP0xmpAyXrjSA/exec?type=sIQ\t&inno_discount=asd&action=asd&planned_time=1&planned_distance=1&plan=asd&time=1&distance=1', 'request_method': 'GET', 'request_headers': '{"User-Agent": "APIFuzzer 0.9.5", "Accept-Encoding": "gzip, deflate", "Accept": "*/*", "Connection": "keep-alive"}', 'request_body': {}, 'response': '', 'reason': 'failed'}
[2021-02-06 07:01:11,631] [WARNING] [request_base_functions.format_pycurl_query_param] -> Returning: {'type': 'vXH_d\x02', 'inno_discount': 'asd', 'action': 'asd', 'planned_time': '1', 'planned_distance': '1', 'plan': 'asd', 'time': '1', 'distance': '1'}
[2021-02-06 07:01:11,631] [INFO] [fuzz_request_sender.transmit] -> Request URL : b'GET' https://script.google.comacros/s/AKfycbzRMTtevIs0ldpdhHQJasl9nKDWqQ2NX3EsRQYX1KLrAdP0xmpAyXrjSA/exec?type=vXH_d&inno_discount=asd&action=asd&planned_time=1&planned_distance=1&plan=asd&time=1&distance=1
[2021-02-06 07:01:11,631] [INFO] [request_base_functions.format_pycurl_url] -> URL to be used: https://script.google.comacros/s/AKfycbzRMTtevIs0ldpdhHQJasl9nKDWqQ2NX3EsRQYX1KLrAdP0xmpAyXrjSA/exec?type=vXH_d&inno_discount=asd&action=asd&planned_time=1&planned_distance=1&plan=asd&time=1&distance=1
[2021-02-06 07:01:11,636] [WARNING] [fuzz_request_sender.transmit] -> Failed to send request because of (6, 'Could not resolve host: script.google.comacros')
[2021-02-06 07:01:11,640] [WARNING] [fuzz_request_sender.transmit] -> Failed to send request because of (6, 'Could not resolve host: script.google.comacros')
[2021-02-06 07:01:11,644] [WARNING] [fuzz_request_sender.transmit] -> Failed to send request because of (6, 'Could not resolve host: script.google.comacros')
[2021-02-06 07:01:11,644] [WARNING] [fuzz_request_sender.report_add_basic_msg] -> Failed to parse http response code
[2021-02-06 07:01:11,645] [WARNING] [base.post_test] -> Test 17 status: failed
[2021-02-06 07:01:11,645] [WARNING] [base.post_test] -> Reason: failed
[2021-02-06 07:01:11,645] [INFO] [fuzz_request_sender.save_report_to_disc] -> Report: {'status': 'failed', 'name': {}, 'sub_reports': [], 'test_number': 17, 'state': 'COMPLETED', 'request_url': 'https://script.google.comacros/s/AKfycbzRMTtevIs0ldpdhHQJasl9nKDWqQ2NX3EsRQYX1KLrAdP0xmpAyXrjSA/exec?type=vXH_d\x02&inno_discount=asd&action=asd&planned_time=1&planned_distance=1&plan=asd&time=1&distance=1', 'request_method': 'GET', 'request_headers': '{"User-Agent": "APIFuzzer 0.9.5", "Accept-Encoding": "gzip, deflate", "Accept": "*/*", "Connection": "keep-alive"}', 'request_body': {}, 'response': '', 'reason': 'failed'}
[2021-02-06 07:01:11,648] [WARNING] [request_base_functions.format_pycurl_query_param] -> Returning: {'type': 'S\x02\x1f\x18', 'inno_discount': 'asd', 'action': 'asd', 'planned_time': '1', 'planned_distance': '1', 'plan': 'asd', 'time': '1', 'distance': '1'}
[2021-02-06 07:01:11,648] [INFO] [fuzz_request_sender.transmit] -> Request URL : b'GET' https://script.google.comacros/s/AKfycbzRMTtevIs0ldpdhHQJasl9nKDWqQ2NX3EsRQYX1KLrAdP0xmpAyXrjSA/exec?type=S&inno_discount=asd&action=asd&planned_time=1&planned_distance=1&plan=asd&time=1&distance=1
[2021-02-06 07:01:11,648] [INFO] [request_base_functions.format_pycurl_url] -> URL to be used: https://script.google.comacros/s/AKfycbzRMTtevIs0ldpdhHQJasl9nKDWqQ2NX3EsRQYX1KLrAdP0xmpAyXrjSA/exec?type=S&inno_discount=asd&action=asd&planned_time=1&planned_distance=1&plan=asd&time=1&distance=1
[2021-02-06 07:01:11,653] [WARNING] [fuzz_request_sender.transmit] -> Failed to send request because of (6, 'Could not resolve host: script.google.comacros')
[2021-02-06 07:01:11,657] [WARNING] [fuzz_request_sender.transmit] -> Failed to send request because of (6, 'Could not resolve host: script.google.comacros')
[2021-02-06 07:01:11,661] [WARNING] [fuzz_request_sender.transmit] -> Failed to send request because of (6, 'Could not resolve host: script.google.comacros')
[2021-02-06 07:01:11,662] [WARNING] [fuzz_request_sender.report_add_basic_msg] -> Failed to parse http response code
[2021-02-06 07:01:11,662] [WARNING] [base.post_test] -> Test 18 status: failed
[2021-02-06 07:01:11,662] [WARNING] [base.post_test] -> Reason: failed
[2021-02-06 07:01:11,662] [INFO] [fuzz_request_sender.save_report_to_disc] -> Report: {'status': 'failed', 'name': {}, 'sub_reports': [], 'test_number': 18, 'state': 'COMPLETED', 'request_url': 'https://script.google.comacros/s/AKfycbzRMTtevIs0ldpdhHQJasl9nKDWqQ2NX3EsRQYX1KLrAdP0xmpAyXrjSA/exec?type=S\x02\x1f\x18&inno_discount=asd&action=asd&planned_time=1&planned_distance=1&plan=asd&time=1&distance=1', 'request_method': 'GET', 'request_headers': '{"User-Agent": "APIFuzzer 0.9.5", "Accept-Encoding": "gzip, deflate", "Accept": "*/*", "Connection": "keep-alive"}', 'request_body': {}, 'response': '', 'reason': 'failed'}
[2021-02-06 07:01:11,676] [WARNING] [request_base_functions.format_pycurl_query_param] -> Returning: {'type': '4&\x0f2', 'inno_discount': 'asd', 'action': 'asd', 'planned_time': '1', 'planned_distance': '1', 'plan': 'asd', 'time': '1', 'distance': '1'}
[2021-02-06 07:01:11,677] [INFO] [fuzz_request_sender.transmit] -> Request URL : b'GET' https://script.google.comacros/s/AKfycbzRMTtevIs0ldpdhHQJasl9nKDWqQ2NX3EsRQYX1KLrAdP0xmpAyXrjSA/exec?type=4&2&inno_discount=asd&action=asd&planned_time=1&planned_distance=1&plan=asd&time=1&distance=1
[2021-02-06 07:01:11,677] [INFO] [request_base_functions.format_pycurl_url] -> URL to be used: https://script.google.comacros/s/AKfycbzRMTtevIs0ldpdhHQJasl9nKDWqQ2NX3EsRQYX1KLrAdP0xmpAyXrjSA/exec?type=4&2&inno_discount=asd&action=asd&planned_time=1&planned_distance=1&plan=asd&time=1&distance=1
[2021-02-06 07:01:11,682] [WARNING] [fuzz_request_sender.transmit] -> Failed to send request because of (6, 'Could not resolve host: script.google.comacros')
[2021-02-06 07:01:11,687] [WARNING] [fuzz_request_sender.transmit] -> Failed to send request because of (6, 'Could not resolve host: script.google.comacros')
[2021-02-06 07:01:11,691] [WARNING] [fuzz_request_sender.transmit] -> Failed to send request because of (6, 'Could not resolve host: script.google.comacros')
[2021-02-06 07:01:11,692] [WARNING] [fuzz_request_sender.report_add_basic_msg] -> Failed to parse http response code
[2021-02-06 07:01:11,692] [WARNING] [base.post_test] -> Test 19 status: failed
[2021-02-06 07:01:11,693] [WARNING] [base.post_test] -> Reason: failed
[2021-02-06 07:01:11,693] [INFO] [fuzz_request_sender.save_report_to_disc] -> Report: {'status': 'failed', 'name': {}, 'sub_reports': [], 'test_number': 19, 'state': 'COMPLETED', 'request_url': 'https://script.google.comacros/s/AKfycbzRMTtevIs0ldpdhHQJasl9nKDWqQ2NX3EsRQYX1KLrAdP0xmpAyXrjSA/exec?type=4&\x0f2&inno_discount=asd&action=asd&planned_time=1&planned_distance=1&plan=asd&time=1&distance=1', 'request_method': 'GET', 'request_headers': '{"User-Agent": "APIFuzzer 0.9.5", "Accept-Encoding": "gzip, deflate", "Accept": "*/*", "Connection": "keep-alive"}', 'request_body': {}, 'response': '', 'reason': 'failed'}
[2021-02-06 07:01:11,701] [WARNING] [request_base_functions.format_pycurl_query_param] -> Returning: {'type': 'D*', 'inno_discount': 'asd', 'action': 'asd', 'planned_time': '1', 'planned_distance': '1', 'plan': 'asd', 'time': '1', 'distance': '1'}
[2021-02-06 07:01:11,701] [INFO] [fuzz_request_sender.transmit] -> Request URL : b'GET' https://script.google.comacros/s/AKfycbzRMTtevIs0ldpdhHQJasl9nKDWqQ2NX3EsRQYX1KLrAdP0xmpAyXrjSA/exec?type=D*&inno_discount=asd&action=asd&planned_time=1&planned_distance=1&plan=asd&time=1&distance=1
[2021-02-06 07:01:11,703] [INFO] [request_base_functions.format_pycurl_url] -> URL to be used: https://script.google.comacros/s/AKfycbzRMTtevIs0ldpdhHQJasl9nKDWqQ2NX3EsRQYX1KLrAdP0xmpAyXrjSA/exec?type=D*&inno_discount=asd&action=asd&planned_time=1&planned_distance=1&plan=asd&time=1&distance=1
[2021-02-06 07:01:11,708] [WARNING] [fuzz_request_sender.transmit] -> Failed to send request because of (6, 'Could not resolve host: script.google.comacros')
[2021-02-06 07:01:11,712] [WARNING] [fuzz_request_sender.transmit] -> Failed to send request because of (6, 'Could not resolve host: script.google.comacros')
[2021-02-06 07:01:11,717] [WARNING] [fuzz_request_sender.transmit] -> Failed to send request because of (6, 'Could not resolve host: script.google.comacros')
[2021-02-06 07:01:11,718] [WARNING] [fuzz_request_sender.report_add_basic_msg] -> Failed to parse http response code
[2021-02-06 07:01:11,718] [WARNING] [base.post_test] -> Test 20 status: failed
[2021-02-06 07:01:11,718] [WARNING] [base.post_test] -> Reason: failed
[2021-02-06 07:01:11,719] [INFO] [fuzz_request_sender.save_report_to_disc] -> Report: {'status': 'failed', 'name': {}, 'sub_reports': [], 'test_number': 20, 'state': 'COMPLETED', 'request_url': 'https://script.google.comacros/s/AKfycbzRMTtevIs0ldpdhHQJasl9nKDWqQ2NX3EsRQYX1KLrAdP0xmpAyXrjSA/exec?type=D*&inno_discount=asd&action=asd&planned_time=1&planned_distance=1&plan=asd&time=1&distance=1', 'request_method': 'GET', 'request_headers': '{"User-Agent": "APIFuzzer 0.9.5", "Accept-Encoding": "gzip, deflate", "Accept": "*/*", "Connection": "keep-alive"}', 'request_body': {}, 'response': '', 'reason': 'failed'}
[2021-02-06 07:01:11,726] [WARNING] [request_base_functions.format_pycurl_query_param] -> Returning: {'type': 'EzH@', 'inno_discount': 'asd', 'action': 'asd', 'planned_time': '1', 'planned_distance': '1', 'plan': 'asd', 'time': '1', 'distance': '1'}
[2021-02-06 07:01:11,726] [INFO] [fuzz_request_sender.transmit] -> Request URL : b'GET' https://script.google.comacros/s/AKfycbzRMTtevIs0ldpdhHQJasl9nKDWqQ2NX3EsRQYX1KLrAdP0xmpAyXrjSA/exec?type=EzH@&inno_discount=asd&action=asd&planned_time=1&planned_distance=1&plan=asd&time=1&distance=1
[2021-02-06 07:01:11,727] [INFO] [request_base_functions.format_pycurl_url] -> URL to be used: https://script.google.comacros/s/AKfycbzRMTtevIs0ldpdhHQJasl9nKDWqQ2NX3EsRQYX1KLrAdP0xmpAyXrjSA/exec?type=EzH@&inno_discount=asd&action=asd&planned_time=1&planned_distance=1&plan=asd&time=1&distance=1
[2021-02-06 07:01:11,732] [WARNING] [fuzz_request_sender.transmit] -> Failed to send request because of (6, 'Could not resolve host: script.google.comacros')
[2021-02-06 07:01:11,737] [WARNING] [fuzz_request_sender.transmit] -> Failed to send request because of (6, 'Could not resolve host: script.google.comacros')
[2021-02-06 07:01:11,741] [WARNING] [fuzz_request_sender.transmit] -> Failed to send request because of (6, 'Could not resolve host: script.google.comacros')
[2021-02-06 07:01:11,742] [WARNING] [fuzz_request_sender.report_add_basic_msg] -> Failed to parse http response code
[2021-02-06 07:01:11,742] [WARNING] [base.post_test] -> Test 21 status: failed
[2021-02-06 07:01:11,743] [WARNING] [base.post_test] -> Reason: failed
[2021-02-06 07:01:11,743] [INFO] [fuzz_request_sender.save_report_to_disc] -> Report: {'status': 'failed', 'name': {}, 'sub_reports': [], 'test_number': 21, 'state': 'COMPLETED', 'request_url': 'https://script.google.comacros/s/AKfycbzRMTtevIs0ldpdhHQJasl9nKDWqQ2NX3EsRQYX1KLrAdP0xmpAyXrjSA/exec?type=EzH@&inno_discount=asd&action=asd&planned_time=1&planned_distance=1&plan=asd&time=1&distance=1', 'request_method': 'GET', 'request_headers': '{"User-Agent": "APIFuzzer 0.9.5", "Accept-Encoding": "gzip, deflate", "Accept": "*/*", "Connection": "keep-alive"}', 'request_body': {}, 'response': '', 'reason': 'failed'}
[2021-02-06 07:01:11,750] [WARNING] [request_base_functions.format_pycurl_query_param] -> Returning: {'type': '\x10 [', 'inno_discount': 'asd', 'action': 'asd', 'planned_time': '1', 'planned_distance': '1', 'plan': 'asd', 'time': '1', 'distance': '1'}
[2021-02-06 07:01:11,750] [INFO] [fuzz_request_sender.transmit] -> Request URL : b'GET' https://script.google.comacros/s/AKfycbzRMTtevIs0ldpdhHQJasl9nKDWqQ2NX3EsRQYX1KLrAdP0xmpAyXrjSA/exec?type= [&inno_discount=asd&action=asd&planned_time=1&planned_distance=1&plan=asd&time=1&distance=1
[2021-02-06 07:01:11,751] [INFO] [request_base_functions.format_pycurl_url] -> URL to be used: https://script.google.comacros/s/AKfycbzRMTtevIs0ldpdhHQJasl9nKDWqQ2NX3EsRQYX1KLrAdP0xmpAyXrjSA/exec?type= [&inno_discount=asd&action=asd&planned_time=1&planned_distance=1&plan=asd&time=1&distance=1
[2021-02-06 07:01:11,756] [WARNING] [fuzz_request_sender.transmit] -> Failed to send request because of (6, 'Could not resolve host: script.google.comacros')
[2021-02-06 07:01:11,760] [WARNING] [fuzz_request_sender.transmit] -> Failed to send request because of (6, 'Could not resolve host: script.google.comacros')
[2021-02-06 07:01:11,765] [WARNING] [fuzz_request_sender.transmit] -> Failed to send request because of (6, 'Could not resolve host: script.google.comacros')
[2021-02-06 07:01:11,765] [WARNING] [fuzz_request_sender.report_add_basic_msg] -> Failed to parse http response code
[2021-02-06 07:01:11,766] [WARNING] [base.post_test] -> Test 22 status: failed
[2021-02-06 07:01:11,766] [WARNING] [base.post_test] -> Reason: failed
[2021-02-06 07:01:11,766] [INFO] [fuzz_request_sender.save_report_to_disc] -> Report: {'status': 'failed', 'name': {}, 'sub_reports': [], 'test_number': 22, 'state': 'COMPLETED', 'request_url': 'https://script.google.comacros/s/AKfycbzRMTtevIs0ldpdhHQJasl9nKDWqQ2NX3EsRQYX1KLrAdP0xmpAyXrjSA/exec?type=\x10 [&inno_discount=asd&action=asd&planned_time=1&planned_distance=1&plan=asd&time=1&distance=1', 'request_method': 'GET', 'request_headers': '{"User-Agent": "APIFuzzer 0.9.5", "Accept-Encoding": "gzip, deflate", "Accept": "*/*", "Connection": "keep-alive"}', 'request_body': {}, 'response': '', 'reason': 'failed'}
[2021-02-06 07:01:11,771] [WARNING] [request_base_functions.format_pycurl_query_param] -> Returning: {'type': '\x0e3i', 'inno_discount': 'asd', 'action': 'asd', 'planned_time': '1', 'planned_distance': '1', 'plan': 'asd', 'time': '1', 'distance': '1'}
[2021-02-06 07:01:11,772] [INFO] [fuzz_request_sender.transmit] -> Request URL : b'GET' https://script.google.comacros/s/AKfycbzRMTtevIs0ldpdhHQJasl9nKDWqQ2NX3EsRQYX1KLrAdP0xmpAyXrjSA/exec?type=3i&inno_discount=asd&action=asd&planned_time=1&planned_distance=1&plan=asd&time=1&distance=1
[2021-02-06 07:01:11,772] [INFO] [request_base_functions.format_pycurl_url] -> URL to be used: https://script.google.comacros/s/AKfycbzRMTtevIs0ldpdhHQJasl9nKDWqQ2NX3EsRQYX1KLrAdP0xmpAyXrjSA/exec?type=3i&inno_discount=asd&action=asd&planned_time=1&planned_distance=1&plan=asd&time=1&distance=1
[2021-02-06 07:01:11,777] [WARNING] [fuzz_request_sender.transmit] -> Failed to send request because of (6, 'Could not resolve host: script.google.comacros')
[2021-02-06 07:01:11,781] [WARNING] [fuzz_request_sender.transmit] -> Failed to send request because of (6, 'Could not resolve host: script.google.comacros')
[2021-02-06 07:01:11,786] [WARNING] [fuzz_request_sender.transmit] -> Failed to send request because of (6, 'Could not resolve host: script.google.comacros')
[2021-02-06 07:01:11,787] [WARNING] [fuzz_request_sender.report_add_basic_msg] -> Failed to parse http response code
[2021-02-06 07:01:11,787] [WARNING] [base.post_test] -> Test 23 status: failed
[2021-02-06 07:01:11,787] [WARNING] [base.post_test] -> Reason: failed
[2021-02-06 07:01:11,787] [INFO] [fuzz_request_sender.save_report_to_disc] -> Report: {'status': 'failed', 'name': {}, 'sub_reports': [], 'test_number': 23, 'state': 'COMPLETED', 'request_url': 'https://script.google.comacros/s/AKfycbzRMTtevIs0ldpdhHQJasl9nKDWqQ2NX3EsRQYX1KLrAdP0xmpAyXrjSA/exec?type=\x0e3i&inno_discount=asd&action=asd&planned_time=1&planned_distance=1&plan=asd&time=1&distance=1', 'request_method': 'GET', 'request_headers': '{"User-Agent": "APIFuzzer 0.9.5", "Accept-Encoding": "gzip, deflate", "Accept": "*/*", "Connection": "keep-alive"}', 'request_body': {}, 'response': '', 'reason': 'failed'}
[2021-02-06 07:01:11,793] [WARNING] [request_base_functions.format_pycurl_query_param] -> Returning: {'type': '\x0cp 5', 'inno_discount': 'asd', 'action': 'asd', 'planned_time': '1', 'planned_distance': '1', 'plan': 'asd', 'time': '1', 'distance': '1'}
[2021-02-06 07:01:11,793] [INFO] [fuzz_request_sender.transmit] -> Request URL : b'GET' https://script.google.comacros/s/AKfycbzRMTtevIs0ldpdhHQJasl9nKDWqQ2NX3EsRQYX1KLrAdP0xmpAyXrjSA/exec?type=p 5&inno_discount=asd&action=asd&planned_time=1&planned_distance=1&plan=asd&time=1&distance=1
[2021-02-06 07:01:11,793] [INFO] [request_base_functions.format_pycurl_url] -> URL to be used: https://script.google.comacros/s/AKfycbzRMTtevIs0ldpdhHQJasl9nKDWqQ2NX3EsRQYX1KLrAdP0xmpAyXrjSA/exec?type=p 5&inno_discount=asd&action=asd&planned_time=1&planned_distance=1&plan=asd&time=1&distance=1
[2021-02-06 07:01:11,798] [WARNING] [fuzz_request_sender.transmit] -> Failed to send request because of (6, 'Could not resolve host: script.google.comacros')
[2021-02-06 07:01:11,802] [WARNING] [fuzz_request_sender.transmit] -> Failed to send request because of (6, 'Could not resolve host: script.google.comacros')
[2021-02-06 07:01:11,807] [WARNING] [fuzz_request_sender.transmit] -> Failed to send request because of (6, 'Could not resolve host: script.google.comacros')
[2021-02-06 07:01:11,808] [WARNING] [fuzz_request_sender.report_add_basic_msg] -> Failed to parse http response code
[2021-02-06 07:01:11,808] [WARNING] [base.post_test] -> Test 24 status: failed
[2021-02-06 07:01:11,808] [WARNING] [base.post_test] -> Reason: failed
[2021-02-06 07:01:11,808] [INFO] [fuzz_request_sender.save_report_to_disc] -> Report: {'status': 'failed', 'name': {}, 'sub_reports': [], 'test_number': 24, 'state': 'COMPLETED', 'request_url': 'https://script.google.comacros/s/AKfycbzRMTtevIs0ldpdhHQJasl9nKDWqQ2NX3EsRQYX1KLrAdP0xmpAyXrjSA/exec?type=\x0cp 5&inno_discount=asd&action=asd&planned_time=1&planned_distance=1&plan=asd&time=1&distance=1', 'request_method': 'GET', 'request_headers': '{"User-Agent": "APIFuzzer 0.9.5", "Accept-Encoding": "gzip, deflate", "Accept": "*/*", "Connection": "keep-alive"}', 'request_body': {}, 'response': '', 'reason': 'failed'}
[2021-02-06 07:01:11,818] [WARNING] [request_base_functions.format_pycurl_query_param] -> Returning: {'type': 'GB', 'inno_discount': 'asd', 'action': 'asd', 'planned_time': '1', 'planned_distance': '1', 'plan': 'asd', 'time': '1', 'distance': '1'}
[2021-02-06 07:01:11,818] [INFO] [fuzz_request_sender.transmit] -> Request URL : b'GET' https://script.google.comacros/s/AKfycbzRMTtevIs0ldpdhHQJasl9nKDWqQ2NX3EsRQYX1KLrAdP0xmpAyXrjSA/exec?type=GB&inno_discount=asd&action=asd&planned_time=1&planned_distance=1&plan=asd&time=1&distance=1
[2021-02-06 07:01:11,819] [INFO] [request_base_functions.format_pycurl_url] -> URL to be used: https://script.google.comacros/s/AKfycbzRMTtevIs0ldpdhHQJasl9nKDWqQ2NX3EsRQYX1KLrAdP0xmpAyXrjSA/exec?type=GB&inno_discount=asd&action=asd&planned_time=1&planned_distance=1&plan=asd&time=1&distance=1
[2021-02-06 07:01:11,824] [WARNING] [fuzz_request_sender.transmit] -> Failed to send request because of (6, 'Could not resolve host: script.google.comacros')
[2021-02-06 07:01:11,829] [WARNING] [fuzz_request_sender.transmit] -> Failed to send request because of (6, 'Could not resolve host: script.google.comacros')
[2021-02-06 07:01:11,834] [WARNING] [fuzz_request_sender.transmit] -> Failed to send request because of (6, 'Could not resolve host: script.google.comacros')
[2021-02-06 07:01:11,834] [WARNING] [fuzz_request_sender.report_add_basic_msg] -> Failed to parse http response code
[2021-02-06 07:01:11,835] [WARNING] [base.post_test] -> Test 25 status: failed
[2021-02-06 07:01:11,835] [WARNING] [base.post_test] -> Reason: failed
[2021-02-06 07:01:11,835] [INFO] [fuzz_request_sender.save_report_to_disc] -> Report: {'status': 'failed', 'name': {}, 'sub_reports': [], 'test_number': 25, 'state': 'COMPLETED', 'request_url': 'https://script.google.comacros/s/AKfycbzRMTtevIs0ldpdhHQJasl9nKDWqQ2NX3EsRQYX1KLrAdP0xmpAyXrjSA/exec?type=GB&inno_discount=asd&action=asd&planned_time=1&planned_distance=1&plan=asd&time=1&distance=1', 'request_method': 'GET', 'request_headers': '{"User-Agent": "APIFuzzer 0.9.5", "Accept-Encoding": "gzip, deflate", "Accept": "*/*", "Connection": "keep-alive"}', 'request_body': {}, 'response': '', 'reason': 'failed'}
[2021-02-06 07:01:11,842] [WARNING] [request_base_functions.format_pycurl_query_param] -> Returning: {'type': '~', 'inno_discount': 'asd', 'action': 'asd', 'planned_time': '1', 'planned_distance': '1', 'plan': 'asd', 'time': '1', 'distance': '1'}
[2021-02-06 07:01:11,843] [INFO] [fuzz_request_sender.transmit] -> Request URL : b'GET' https://script.google.comacros/s/AKfycbzRMTtevIs0ldpdhHQJasl9nKDWqQ2NX3EsRQYX1KLrAdP0xmpAyXrjSA/exec?type=~&inno_discount=asd&action=asd&planned_time=1&planned_distance=1&plan=asd&time=1&distance=1
[2021-02-06 07:01:11,844] [INFO] [request_base_functions.format_pycurl_url] -> URL to be used: https://script.google.comacros/s/AKfycbzRMTtevIs0ldpdhHQJasl9nKDWqQ2NX3EsRQYX1KLrAdP0xmpAyXrjSA/exec?type=~&inno_discount=asd&action=asd&planned_time=1&planned_distance=1&plan=asd&time=1&distance=1
[2021-02-06 07:01:11,849] [WARNING] [fuzz_request_sender.transmit] -> Failed to send request because of (6, 'Could not resolve host: script.google.comacros')
[2021-02-06 07:01:11,853] [WARNING] [fuzz_request_sender.transmit] -> Failed to send request because of (6, 'Could not resolve host: script.google.comacros')
[2021-02-06 07:01:11,858] [WARNING] [fuzz_request_sender.transmit] -> Failed to send request because of (6, 'Could not resolve host: script.google.comacros')
[2021-02-06 07:01:11,858] [WARNING] [fuzz_request_sender.report_add_basic_msg] -> Failed to parse http response code
[2021-02-06 07:01:11,859] [WARNING] [base.post_test] -> Test 26 status: failed
[2021-02-06 07:01:11,859] [WARNING] [base.post_test] -> Reason: failed
[2021-02-06 07:01:11,859] [INFO] [fuzz_request_sender.save_report_to_disc] -> Report: {'status': 'failed', 'name': {}, 'sub_reports': [], 'test_number': 26, 'state': 'COMPLETED', 'request_url': 'https://script.google.comacros/s/AKfycbzRMTtevIs0ldpdhHQJasl9nKDWqQ2NX3EsRQYX1KLrAdP0xmpAyXrjSA/exec?type=~&inno_discount=asd&action=asd&planned_time=1&planned_distance=1&plan=asd&time=1&distance=1', 'request_method': 'GET', 'request_headers': '{"User-Agent": "APIFuzzer 0.9.5", "Accept-Encoding": "gzip, deflate", "Accept": "*/*", "Connection": "keep-alive"}', 'request_body': {}, 'response': '', 'reason': 'failed'}
[2021-02-06 07:01:11,864] [WARNING] [request_base_functions.format_pycurl_query_param] -> Returning: {'type': 'E{', 'inno_discount': 'asd', 'action': 'asd', 'planned_time': '1', 'planned_distance': '1', 'plan': 'asd', 'time': '1', 'distance': '1'}
[2021-02-06 07:01:11,864] [INFO] [fuzz_request_sender.transmit] -> Request URL : b'GET' https://script.google.comacros/s/AKfycbzRMTtevIs0ldpdhHQJasl9nKDWqQ2NX3EsRQYX1KLrAdP0xmpAyXrjSA/exec?type=E{&inno_discount=asd&action=asd&planned_time=1&planned_distance=1&plan=asd&time=1&distance=1
[2021-02-06 07:01:11,865] [INFO] [request_base_functions.format_pycurl_url] -> URL to be used: https://script.google.comacros/s/AKfycbzRMTtevIs0ldpdhHQJasl9nKDWqQ2NX3EsRQYX1KLrAdP0xmpAyXrjSA/exec?type=E{&inno_discount=asd&action=asd&planned_time=1&planned_distance=1&plan=asd&time=1&distance=1
[2021-02-06 07:01:11,870] [WARNING] [fuzz_request_sender.transmit] -> Failed to send request because of (6, 'Could not resolve host: script.google.comacros')
[2021-02-06 07:01:11,874] [WARNING] [fuzz_request_sender.transmit] -> Failed to send request because of (6, 'Could not resolve host: script.google.comacros')
[2021-02-06 07:01:11,879] [WARNING] [fuzz_request_sender.transmit] -> Failed to send request because of (6, 'Could not resolve host: script.google.comacros')
[2021-02-06 07:01:11,879] [WARNING] [fuzz_request_sender.report_add_basic_msg] -> Failed to parse http response code
[2021-02-06 07:01:11,880] [WARNING] [base.post_test] -> Test 27 status: failed
[2021-02-06 07:01:11,880] [WARNING] [base.post_test] -> Reason: failed
[2021-02-06 07:01:11,880] [INFO] [fuzz_request_sender.save_report_to_disc] -> Report: {'status': 'failed', 'name': {}, 'sub_reports': [], 'test_number': 27, 'state': 'COMPLETED', 'request_url': 'https://script.google.comacros/s/AKfycbzRMTtevIs0ldpdhHQJasl9nKDWqQ2NX3EsRQYX1KLrAdP0xmpAyXrjSA/exec?type=E{&inno_discount=asd&action=asd&planned_time=1&planned_distance=1&plan=asd&time=1&distance=1', 'request_method': 'GET', 'request_headers': '{"User-Agent": "APIFuzzer 0.9.5", "Accept-Encoding": "gzip, deflate", "Accept": "*/*", "Connection": "keep-alive"}', 'request_body': {}, 'response': '', 'reason': 'failed'}
[2021-02-06 07:01:11,886] [WARNING] [request_base_functions.format_pycurl_query_param] -> Returning: {'type': '`<', 'inno_discount': 'asd', 'action': 'asd', 'planned_time': '1', 'planned_distance': '1', 'plan': 'asd', 'time': '1', 'distance': '1'}
[2021-02-06 07:01:11,887] [INFO] [fuzz_request_sender.transmit] -> Request URL : b'GET' https://script.google.comacros/s/AKfycbzRMTtevIs0ldpdhHQJasl9nKDWqQ2NX3EsRQYX1KLrAdP0xmpAyXrjSA/exec?type=`<&inno_discount=asd&action=asd&planned_time=1&planned_distance=1&plan=asd&time=1&distance=1
[2021-02-06 07:01:11,887] [INFO] [request_base_functions.format_pycurl_url] -> URL to be used: https://script.google.comacros/s/AKfycbzRMTtevIs0ldpdhHQJasl9nKDWqQ2NX3EsRQYX1KLrAdP0xmpAyXrjSA/exec?type=`<&inno_discount=asd&action=asd&planned_time=1&planned_distance=1&plan=asd&time=1&distance=1
[2021-02-06 07:01:11,892] [WARNING] [fuzz_request_sender.transmit] -> Failed to send request because of (6, 'Could not resolve host: script.google.comacros')
[2021-02-06 07:01:11,896] [WARNING] [fuzz_request_sender.transmit] -> Failed to send request because of (6, 'Could not resolve host: script.google.comacros')
[2021-02-06 07:01:11,901] [WARNING] [fuzz_request_sender.transmit] -> Failed to send request because of (6, 'Could not resolve host: script.google.comacros')
[2021-02-06 07:01:11,901] [WARNING] [fuzz_request_sender.report_add_basic_msg] -> Failed to parse http response code
[2021-02-06 07:01:11,901] [WARNING] [base.post_test] -> Test 28 status: failed
[2021-02-06 07:01:11,901] [WARNING] [base.post_test] -> Reason: failed
[2021-02-06 07:01:11,902] [INFO] [fuzz_request_sender.save_report_to_disc] -> Report: {'status': 'failed', 'name': {}, 'sub_reports': [], 'test_number': 28, 'state': 'COMPLETED', 'request_url': 'https://script.google.comacros/s/AKfycbzRMTtevIs0ldpdhHQJasl9nKDWqQ2NX3EsRQYX1KLrAdP0xmpAyXrjSA/exec?type=`<&inno_discount=asd&action=asd&planned_time=1&planned_distance=1&plan=asd&time=1&distance=1', 'request_method': 'GET', 'request_headers': '{"User-Agent": "APIFuzzer 0.9.5", "Accept-Encoding": "gzip, deflate", "Accept": "*/*", "Connection": "keep-alive"}', 'request_body': {}, 'response': '', 'reason': 'failed'}
[2021-02-06 07:01:11,906] [WARNING] [request_base_functions.format_pycurl_query_param] -> Returning: {'type': '', 'inno_discount': 'asd', 'action': 'asd', 'planned_time': '1', 'planned_distance': '1', 'plan': 'asd', 'time': '1', 'distance': '1'}
[2021-02-06 07:01:11,906] [INFO] [fuzz_request_sender.transmit] -> Request URL : b'GET' https://script.google.comacros/s/AKfycbzRMTtevIs0ldpdhHQJasl9nKDWqQ2NX3EsRQYX1KLrAdP0xmpAyXrjSA/exec?type=&inno_discount=asd&action=asd&planned_time=1&planned_distance=1&plan=asd&time=1&distance=1
[2021-02-06 07:01:11,907] [INFO] [request_base_functions.format_pycurl_url] -> URL to be used: https://script.google.comacros/s/AKfycbzRMTtevIs0ldpdhHQJasl9nKDWqQ2NX3EsRQYX1KLrAdP0xmpAyXrjSA/exec?type=&inno_discount=asd&action=asd&planned_time=1&planned_distance=1&plan=asd&time=1&distance=1
[2021-02-06 07:01:11,911] [WARNING] [fuzz_request_sender.transmit] -> Failed to send request because of (6, 'Could not resolve host: script.google.comacros')
[2021-02-06 07:01:11,916] [WARNING] [fuzz_request_sender.transmit] -> Failed to send request because of (6, 'Could not resolve host: script.google.comacros')
[2021-02-06 07:01:11,920] [WARNING] [fuzz_request_sender.transmit] -> Failed to send request because of (6, 'Could not resolve host: script.google.comacros')
[2021-02-06 07:01:11,921] [WARNING] [fuzz_request_sender.report_add_basic_msg] -> Failed to parse http response code
[2021-02-06 07:01:11,921] [WARNING] [base.post_test] -> Test 29 status: failed
[2021-02-06 07:01:11,921] [WARNING] [base.post_test] -> Reason: failed
[2021-02-06 07:01:11,921] [INFO] [fuzz_request_sender.save_report_to_disc] -> Report: {'status': 'failed', 'name': {}, 'sub_reports': [], 'test_number': 29, 'state': 'COMPLETED', 'request_url': 'https://script.google.comacros/s/AKfycbzRMTtevIs0ldpdhHQJasl9nKDWqQ2NX3EsRQYX1KLrAdP0xmpAyXrjSA/exec?type=&inno_discount=asd&action=asd&planned_time=1&planned_distance=1&plan=asd&time=1&distance=1', 'request_method': 'GET', 'request_headers': '{"User-Agent": "APIFuzzer 0.9.5", "Accept-Encoding": "gzip, deflate", "Accept": "*/*", "Connection": "keep-alive"}', 'request_body': {}, 'response': '', 'reason': 'failed'}
[2021-02-06 07:01:11,926] [WARNING] [request_base_functions.format_pycurl_query_param] -> Returning: {'type': '<w^\x04E\x064', 'inno_discount': 'asd', 'action': 'asd', 'planned_time': '1', 'planned_distance': '1', 'plan': 'asd', 'time': '1', 'distance': '1'}
[2021-02-06 07:01:11,926] [INFO] [fuzz_request_sender.transmit] -> Request URL : b'GET' https://script.google.comacros/s/AKfycbzRMTtevIs0ldpdhHQJasl9nKDWqQ2NX3EsRQYX1KLrAdP0xmpAyXrjSA/exec?type=<w^E4&inno_discount=asd&action=asd&planned_time=1&planned_distance=1&plan=asd&time=1&distance=1
[2021-02-06 07:01:11,927] [INFO] [request_base_functions.format_pycurl_url] -> URL to be used: https://script.google.comacros/s/AKfycbzRMTtevIs0ldpdhHQJasl9nKDWqQ2NX3EsRQYX1KLrAdP0xmpAyXrjSA/exec?type=<w^E4&inno_discount=asd&action=asd&planned_time=1&planned_distance=1&plan=asd&time=1&distance=1
[2021-02-06 07:01:11,931] [WARNING] [fuzz_request_sender.transmit] -> Failed to send request because of (6, 'Could not resolve host: script.google.comacros')
[2021-02-06 07:01:11,936] [WARNING] [fuzz_request_sender.transmit] -> Failed to send request because of (6, 'Could not resolve host: script.google.comacros')
[2021-02-06 07:01:11,941] [WARNING] [fuzz_request_sender.transmit] -> Failed to send request because of (6, 'Could not resolve host: script.google.comacros')
[2021-02-06 07:01:11,941] [WARNING] [fuzz_request_sender.report_add_basic_msg] -> Failed to parse http response code
[2021-02-06 07:01:11,942] [WARNING] [base.post_test] -> Test 30 status: failed
[2021-02-06 07:01:11,942] [WARNING] [base.post_test] -> Reason: failed
[2021-02-06 07:01:11,943] [INFO] [fuzz_request_sender.save_report_to_disc] -> Report: {'status': 'failed', 'name': {}, 'sub_reports': [], 'test_number': 30, 'state': 'COMPLETED', 'request_url': 'https://script.google.comacros/s/AKfycbzRMTtevIs0ldpdhHQJasl9nKDWqQ2NX3EsRQYX1KLrAdP0xmpAyXrjSA/exec?type=<w^\x04E\x064&inno_discount=asd&action=asd&planned_time=1&planned_distance=1&plan=asd&time=1&distance=1', 'request_method': 'GET', 'request_headers': '{"User-Agent": "APIFuzzer 0.9.5", "Accept-Encoding": "gzip, deflate", "Accept": "*/*", "Connection": "keep-alive"}', 'request_body': {}, 'response': '', 'reason': 'failed'}
